{
    "page":1,
    "per_page":15,
    "photos": [
        { "id":3342627,
        "width":4000,
        "height":6000,
        "url":"https://www.pexels.com/photo/shallow-focus-photography-of-monkey-3342627/",
        "photographer":"Leonid Danilov",
        "photographer_url":"https://www.pexels.com/@infonautica",
        "photographer_id":1352975,
        "avg_color":"#6E737A",
        "src": {
            "original":"https://images.pexels.com/photos/3342627/pexels-photo-3342627.jpeg",
            "large2x":"https://images.pexels.com/photos/3342627/pexels-photo-3342627.jpeg?auto=compress&cs=tinysrgb&dpr=2&h=650&w=940",
            "large":"https://images.pexels.com/photos/3342627/pexels-photo-3342627.jpeg?auto=compress&cs=tinysrgb&h=650&w=940",
            "medium":"https://images.pexels.com/photos/3342627/pexels-photo-3342627.jpeg?auto=compress&cs=tinysrgb&h=350",
            "small":"https://images.pexels.com/photos/3342627/pexels-photo-3342627.jpeg?auto=compress&cs=tinysrgb&h=130",
            "portrait":"https://images.pexels.com/photos/3342627/pexels-photo-3342627.jpeg?auto=compress&cs=tinysrgb&fit=crop&h=1200&w=800",
            "landscape":"https://images.pexels.com/photos/3342627/pexels-photo-3342627.jpeg?auto=compress&cs=tinysrgb&fit=crop&h=627&w=1200",
            "tiny":"https://images.pexels.com/photos/3342627/pexels-photo-3342627.jpeg?auto=compress&cs=tinysrgb&dpr=1&fit=crop&h=200&w=280"},
            "liked":false},
        { "id":745086,
        "width":5184,
        "height":3456,
        "url":"https://www.pexels.com/photo/grayscale-photo-of-gray-langur-sitting-next-to-trees-745086/",
        "photographer":"Manish yogi",
        "photographer_url":"https://www.pexels.com/@ronit",
        "photographer_id":229865,
        "avg_color":"#7D7D7D",
        "src": {
            "original":"https://images.pexels.com/photos/745086/pexels-photo-745086.jpeg",
            "large2x":"https://images.pexels.com/photos/745086/pexels-photo-745086.jpeg?auto=compress&cs=tinysrgb&dpr=2&h=650&w=940",
            "large":"https://images.pexels.com/photos/745086/pexels-photo-745086.jpeg?auto=compress&cs=tinysrgb&h=650&w=940",
            "medium":"https://images.pexels.com/photos/745086/pexels-photo-745086.jpeg?auto=compress&cs=tinysrgb&h=350",
            "small":"https://images.pexels.com/photos/745086/pexels-photo-745086.jpeg?auto=compress&cs=tinysrgb&h=130",
            "portrait":"https://images.pexels.com/photos/745086/pexels-photo-745086.jpeg?auto=compress&cs=tinysrgb&fit=crop&h=1200&w=800",
            "landscape":"https://images.pexels.com/photos/745086/pexels-photo-745086.jpeg?auto=compress&cs=tinysrgb&fit=crop&h=627&w=1200",
            "tiny":"https://images.pexels.com/photos/745086/pexels-photo-745086.jpeg?auto=compress&cs=tinysrgb&dpr=1&fit=crop&h=200&w=280"},
            "liked":false},
        { "id":2825904,
        "width":3456,
        "height":4608,
        "url":"https://www.pexels.com/photo/white-baboon-2825904/",
        "photographer":"Tayla Walsh",
        "photographer_url":"https://www.pexels.com/@tayla",
        "photographer_id":317241,
        "avg_color":"#908883",
        "src": {
            "original":"https://images.pexels.com/photos/2825904/pexels-photo-2825904.jpeg",
            "large2x":"https://images.pexels.com/photos/2825904/pexels-photo-2825904.jpeg?auto=compress&cs=tinysrgb&dpr=2&h=650&w=940",
            "large":"https://images.pexels.com/photos/2825904/pexels-photo-2825904.jpeg?auto=compress&cs=tinysrgb&h=650&w=940",
            "medium":"https://images.pexels.com/photos/2825904/pexels-photo-2825904.jpeg?auto=compress&cs=tinysrgb&h=350",
            "small":"https://images.pexels.com/photos/2825904/pexels-photo-2825904.jpeg?auto=compress&cs=tinysrgb&h=130",
            "portrait":"https://images.pexels.com/photos/2825904/pexels-photo-2825904.jpeg?auto=compress&cs=tinysrgb&fit=crop&h=1200&w=800",
            "landscape":"https://images.pexels.com/photos/2825904/pexels-photo-2825904.jpeg?auto=compress&cs=tinysrgb&fit=crop&h=627&w=1200",
            "tiny":"https://images.pexels.com/photos/2825904/pexels-photo-2825904.jpeg?auto=compress&cs=tinysrgb&dpr=1&fit=crop&h=200&w=280"},
            "liked":false},
        { "id":3493733,
        "width":4000,
        "height":6000,
        "url":"https://www.pexels.com/photo/shallow-focus-photography-of-two-primate-near-tree-3493733/",
        "photographer":"Aleksey Kuprikov",
        "photographer_url":"https://www.pexels.com/@aleksey-kuprikov-1883853",
        "photographer_id":1883853,
        "avg_color":"#7E7F71",
        "src": {
            "original":"https://images.pexels.com/photos/3493733/pexels-photo-3493733.jpeg",
            "large2x":"https://images.pexels.com/photos/3493733/pexels-photo-3493733.jpeg?auto=compress&cs=tinysrgb&dpr=2&h=650&w=940",
            "large":"https://images.pexels.com/photos/3493733/pexels-photo-3493733.jpeg?auto=compress&cs=tinysrgb&h=650&w=940",
            "medium":"https://images.pexels.com/photos/3493733/pexels-photo-3493733.jpeg?auto=compress&cs=tinysrgb&h=350",
            "small":"https://images.pexels.com/photos/3493733/pexels-photo-3493733.jpeg?auto=compress&cs=tinysrgb&h=130",
            "portrait":"https://images.pexels.com/photos/3493733/pexels-photo-3493733.jpeg?auto=compress&cs=tinysrgb&fit=crop&h=1200&w=800",
            "landscape":"https://images.pexels.com/photos/3493733/pexels-photo-3493733.jpeg?auto=compress&cs=tinysrgb&fit=crop&h=627&w=1200",
            "tiny":"https://images.pexels.com/photos/3493733/pexels-photo-3493733.jpeg?auto=compress&cs=tinysrgb&dpr=1&fit=crop&h=200&w=280"},
            "liked":false},
        { "id":2271380,
        "width":6000,
        "height":3999,
        "url":"https://www.pexels.com/photo/selective-focus-photo-of-gray-and-brown-primate-2271380/",
        "photographer":"capri23auto",
        "photographer_url":"https://www.pexels.com/@capri23auto-407274",
        "photographer_id":407274,
        "avg_color":"#4A535E",
        "src": {
            "original":"https://images.pexels.com/photos/2271380/pexels-photo-2271380.jpeg",
            "large2x":"https://images.pexels.com/photos/2271380/pexels-photo-2271380.jpeg?auto=compress&cs=tinysrgb&dpr=2&h=650&w=940",
            "large":"https://images.pexels.com/photos/2271380/pexels-photo-2271380.jpeg?auto=compress&cs=tinysrgb&h=650&w=940",
            "medium":"https://images.pexels.com/photos/2271380/pexels-photo-2271380.jpeg?auto=compress&cs=tinysrgb&h=350",
            "small":"https://images.pexels.com/photos/2271380/pexels-photo-2271380.jpeg?auto=compress&cs=tinysrgb&h=130",
            "portrait":"https://images.pexels.com/photos/2271380/pexels-photo-2271380.jpeg?auto=compress&cs=tinysrgb&fit=crop&h=1200&w=800",
            "landscape":"https://images.pexels.com/photos/2271380/pexels-photo-2271380.jpeg?auto=compress&cs=tinysrgb&fit=crop&h=627&w=1200",
            "tiny":"https://images.pexels.com/photos/2271380/pexels-photo-2271380.jpeg?auto=compress&cs=tinysrgb&dpr=1&fit=crop&h=200&w=280"},
            "liked":false},
        { "id":751821,
        "width":4462,
        "height":2975,
        "url":"https://www.pexels.com/photo/selective-focus-photo-of-brown-mokey-751821/",
        "photographer":"Adriaan Greyling",
        "photographer_url":"https://www.pexels.com/@adriaan-greyling-234777",
        "photographer_id":234777,
        "avg_color":"#373B22",
        "src": {
            "original":"https://images.pexels.com/photos/751821/pexels-photo-751821.jpeg",
            "large2x":"https://images.pexels.com/photos/751821/pexels-photo-751821.jpeg?auto=compress&cs=tinysrgb&dpr=2&h=650&w=940",
            "large":"https://images.pexels.com/photos/751821/pexels-photo-751821.jpeg?auto=compress&cs=tinysrgb&h=650&w=940",
            "medium":"https://images.pexels.com/photos/751821/pexels-photo-751821.jpeg?auto=compress&cs=tinysrgb&h=350",
            "small":"https://images.pexels.com/photos/751821/pexels-photo-751821.jpeg?auto=compress&cs=tinysrgb&h=130",
            "portrait":"https://images.pexels.com/photos/751821/pexels-photo-751821.jpeg?auto=compress&cs=tinysrgb&fit=crop&h=1200&w=800",
            "landscape":"https://images.pexels.com/photos/751821/pexels-photo-751821.jpeg?auto=compress&cs=tinysrgb&fit=crop&h=627&w=1200",
            "tiny":"https://images.pexels.com/photos/751821/pexels-photo-751821.jpeg?auto=compress&cs=tinysrgb&dpr=1&fit=crop&h=200&w=280"},
            "liked":false},
        { "id":2678404,
        "width":6000,
        "height":4000,
        "url":"https://www.pexels.com/photo/monochrome-photo-of-monkey-looking-upwards-2678404/",
        "photographer":"Samson Bush",
        "photographer_url":"https://www.pexels.com/@samson-bush-1387215",
        "photographer_id":1387215,
        "avg_color":"#111111",
        "src": {
            "original":"https://images.pexels.com/photos/2678404/pexels-photo-2678404.jpeg",
            "large2x":"https://images.pexels.com/photos/2678404/pexels-photo-2678404.jpeg?auto=compress&cs=tinysrgb&dpr=2&h=650&w=940",
            "large":"https://images.pexels.com/photos/2678404/pexels-photo-2678404.jpeg?auto=compress&cs=tinysrgb&h=650&w=940",
            "medium":"https://images.pexels.com/photos/2678404/pexels-photo-2678404.jpeg?auto=compress&cs=tinysrgb&h=350",
            "small":"https://images.pexels.com/photos/2678404/pexels-photo-2678404.jpeg?auto=compress&cs=tinysrgb&h=130",
            "portrait":"https://images.pexels.com/photos/2678404/pexels-photo-2678404.jpeg?auto=compress&cs=tinysrgb&fit=crop&h=1200&w=800",
            "landscape":"https://images.pexels.com/photos/2678404/pexels-photo-2678404.jpeg?auto=compress&cs=tinysrgb&fit=crop&h=627&w=1200",
            "tiny":"https://images.pexels.com/photos/2678404/pexels-photo-2678404.jpeg?auto=compress&cs=tinysrgb&dpr=1&fit=crop&h=200&w=280"},
            "liked":false},
        { "id":3347245,
        "width":6016,
        "height":4016,
        "url":"https://www.pexels.com/photo/monochrome-photo-of-monkey-leaning-on-wall-3347245/",
        "photographer":"Bob Ward",
        "photographer_url":"https://www.pexels.com/@wardmedia",
        "photographer_id":368324,
        "avg_color":"#6B6B6B",
        "src": {
            "original":"https://images.pexels.com/photos/3347245/pexels-photo-3347245.jpeg",
            "large2x":"https://images.pexels.com/photos/3347245/pexels-photo-3347245.jpeg?auto=compress&cs=tinysrgb&dpr=2&h=650&w=940",
            "large":"https://images.pexels.com/photos/3347245/pexels-photo-3347245.jpeg?auto=compress&cs=tinysrgb&h=650&w=940",
            "medium":"https://images.pexels.com/photos/3347245/pexels-photo-3347245.jpeg?auto=compress&cs=tinysrgb&h=350",
            "small":"https://images.pexels.com/photos/3347245/pexels-photo-3347245.jpeg?auto=compress&cs=tinysrgb&h=130",
            "portrait":"https://images.pexels.com/photos/3347245/pexels-photo-3347245.jpeg?auto=compress&cs=tinysrgb&fit=crop&h=1200&w=800",
            "landscape":"https://images.pexels.com/photos/3347245/pexels-photo-3347245.jpeg?auto=compress&cs=tinysrgb&fit=crop&h=627&w=1200",
            "tiny":"https://images.pexels.com/photos/3347245/pexels-photo-3347245.jpeg?auto=compress&cs=tinysrgb&dpr=1&fit=crop&h=200&w=280"},
            "liked":false},
        { "id":953691,
        "width":2977,
        "height":3560,
        "url":"https://www.pexels.com/photo/four-monkeys-sitting-on-soil-watching-houses-and-palm-trees-953691/",
        "photographer":"aditya sahoo",
        "photographer_url":"https://www.pexels.com/@aditya-sahoo-283581",
        "photographer_id":283581,
        "avg_color":"#A09A8E",
        "src": {
            "original":"https://images.pexels.com/photos/953691/pexels-photo-953691.jpeg",
            "large2x":"https://images.pexels.com/photos/953691/pexels-photo-953691.jpeg?auto=compress&cs=tinysrgb&dpr=2&h=650&w=940",
            "large":"https://images.pexels.com/photos/953691/pexels-photo-953691.jpeg?auto=compress&cs=tinysrgb&h=650&w=940",
            "medium":"https://images.pexels.com/photos/953691/pexels-photo-953691.jpeg?auto=compress&cs=tinysrgb&h=350",
            "small":"https://images.pexels.com/photos/953691/pexels-photo-953691.jpeg?auto=compress&cs=tinysrgb&h=130",
            "portrait":"https://images.pexels.com/photos/953691/pexels-photo-953691.jpeg?auto=compress&cs=tinysrgb&fit=crop&h=1200&w=800",
            "landscape":"https://images.pexels.com/photos/953691/pexels-photo-953691.jpeg?auto=compress&cs=tinysrgb&fit=crop&h=627&w=1200",
            "tiny":"https://images.pexels.com/photos/953691/pexels-photo-953691.jpeg?auto=compress&cs=tinysrgb&dpr=1&fit=crop&h=200&w=280"},
            "liked":false},
        { "id":2968746,
        "width":2485,
        "height":1648,
        "url":"https://www.pexels.com/photo/monkey-on-the-ledge-2968746/",
        "photographer":"Anna Urlapova",
        "photographer_url":"https://www.pexels.com/@urlapovaanna",
        "photographer_id":1495233,
        "avg_color":"#A1ADB5",
        "src": {
            "original":"https://images.pexels.com/photos/2968746/pexels-photo-2968746.jpeg",
            "large2x":"https://images.pexels.com/photos/2968746/pexels-photo-2968746.jpeg?auto=compress&cs=tinysrgb&dpr=2&h=650&w=940",
            "large":"https://images.pexels.com/photos/2968746/pexels-photo-2968746.jpeg?auto=compress&cs=tinysrgb&h=650&w=940",
            "medium":"https://images.pexels.com/photos/2968746/pexels-photo-2968746.jpeg?auto=compress&cs=tinysrgb&h=350",
            "small":"https://images.pexels.com/photos/2968746/pexels-photo-2968746.jpeg?auto=compress&cs=tinysrgb&h=130",
            "portrait":"https://images.pexels.com/photos/2968746/pexels-photo-2968746.jpeg?auto=compress&cs=tinysrgb&fit=crop&h=1200&w=800",
            "landscape":"https://images.pexels.com/photos/2968746/pexels-photo-2968746.jpeg?auto=compress&cs=tinysrgb&fit=crop&h=627&w=1200",
            "tiny":"https://images.pexels.com/photos/2968746/pexels-photo-2968746.jpeg?auto=compress&cs=tinysrgb&dpr=1&fit=crop&h=200&w=280"},
            "liked":false},
        { "id":814889,
        "width":5472,
        "height":3648,
        "url":"https://www.pexels.com/photo/animal-hand-814889/",
        "photographer":"Magda Ehlers",
        "photographer_url":"https://www.pexels.com/@magda-ehlers-pexels",
        "photographer_id":102775,
        "avg_color":"#9C8976",
        "src": {
            "original":"https://images.pexels.com/photos/814889/pexels-photo-814889.jpeg",
            "large2x":"https://images.pexels.com/photos/814889/pexels-photo-814889.jpeg?auto=compress&cs=tinysrgb&dpr=2&h=650&w=940",
            "large":"https://images.pexels.com/photos/814889/pexels-photo-814889.jpeg?auto=compress&cs=tinysrgb&h=650&w=940",
            "medium":"https://images.pexels.com/photos/814889/pexels-photo-814889.jpeg?auto=compress&cs=tinysrgb&h=350",
            "small":"https://images.pexels.com/photos/814889/pexels-photo-814889.jpeg?auto=compress&cs=tinysrgb&h=130",
            "portrait":"https://images.pexels.com/photos/814889/pexels-photo-814889.jpeg?auto=compress&cs=tinysrgb&fit=crop&h=1200&w=800",
            "landscape":"https://images.pexels.com/photos/814889/pexels-photo-814889.jpeg?auto=compress&cs=tinysrgb&fit=crop&h=627&w=1200",
            "tiny":"https://images.pexels.com/photos/814889/pexels-photo-814889.jpeg?auto=compress&cs=tinysrgb&dpr=1&fit=crop&h=200&w=280"},
            "liked":false},
        { "id":5028878,
        "width":2548,
        "height":3645,
        "url":"https://www.pexels.com/photo/wild-monkey-on-hill-slope-5028878/",
        "photographer":"Evgenia Basyrova",
        "photographer_url":"https://www.pexels.com/@neverlandphotos",
        "photographer_id":3269096,
        "avg_color":"#847B6D",
        "src": {
            "original":"https://images.pexels.com/photos/5028878/pexels-photo-5028878.jpeg",
            "large2x":"https://images.pexels.com/photos/5028878/pexels-photo-5028878.jpeg?auto=compress&cs=tinysrgb&dpr=2&h=650&w=940",
            "large":"https://images.pexels.com/photos/5028878/pexels-photo-5028878.jpeg?auto=compress&cs=tinysrgb&h=650&w=940",
            "medium":"https://images.pexels.com/photos/5028878/pexels-photo-5028878.jpeg?auto=compress&cs=tinysrgb&h=350",
            "small":"https://images.pexels.com/photos/5028878/pexels-photo-5028878.jpeg?auto=compress&cs=tinysrgb&h=130",
            "portrait":"https://images.pexels.com/photos/5028878/pexels-photo-5028878.jpeg?auto=compress&cs=tinysrgb&fit=crop&h=1200&w=800",
            "landscape":"https://images.pexels.com/photos/5028878/pexels-photo-5028878.jpeg?auto=compress&cs=tinysrgb&fit=crop&h=627&w=1200",
            "tiny":"https://images.pexels.com/photos/5028878/pexels-photo-5028878.jpeg?auto=compress&cs=tinysrgb&dpr=1&fit=crop&h=200&w=280"},
            "liked":false},
        { "id":4430325,
        "width":4953,
        "height":3308,
        "url":"https://www.pexels.com/photo/brown-monkeys-on-gray-concrete-floor-4430325/",
        "photographer":"cottonbro",
        "photographer_url":"https://www.pexels.com/@cottonbro",
        "photographer_id":1437723,
        "avg_color":"#5E544B",
        "src": {
            "original":"https://images.pexels.com/photos/4430325/pexels-photo-4430325.jpeg",
            "large2x":"https://images.pexels.com/photos/4430325/pexels-photo-4430325.jpeg?auto=compress&cs=tinysrgb&dpr=2&h=650&w=940",
            "large":"https://images.pexels.com/photos/4430325/pexels-photo-4430325.jpeg?auto=compress&cs=tinysrgb&h=650&w=940",
            "medium":"https://images.pexels.com/photos/4430325/pexels-photo-4430325.jpeg?auto=compress&cs=tinysrgb&h=350",
            "small":"https://images.pexels.com/photos/4430325/pexels-photo-4430325.jpeg?auto=compress&cs=tinysrgb&h=130",
            "portrait":"https://images.pexels.com/photos/4430325/pexels-photo-4430325.jpeg?auto=compress&cs=tinysrgb&fit=crop&h=1200&w=800",
            "landscape":"https://images.pexels.com/photos/4430325/pexels-photo-4430325.jpeg?auto=compress&cs=tinysrgb&fit=crop&h=627&w=1200",
            "tiny":"https://images.pexels.com/photos/4430325/pexels-photo-4430325.jpeg?auto=compress&cs=tinysrgb&dpr=1&fit=crop&h=200&w=280"},
            "liked":false},
        { "id":4430327,
        "width":5486,
        "height":3657,
        "url":"https://www.pexels.com/photo/brown-monkey-on-black-motorcycle-4430327/",
        "photographer":"cottonbro",
        "photographer_url":"https://www.pexels.com/@cottonbro",
        "photographer_id":1437723,
        "avg_color":"#737364",
        "src": {
            "original":"https://images.pexels.com/photos/4430327/pexels-photo-4430327.jpeg",
            "large2x":"https://images.pexels.com/photos/4430327/pexels-photo-4430327.jpeg?auto=compress&cs=tinysrgb&dpr=2&h=650&w=940",
            "large":"https://images.pexels.com/photos/4430327/pexels-photo-4430327.jpeg?auto=compress&cs=tinysrgb&h=650&w=940",
            "medium":"https://images.pexels.com/photos/4430327/pexels-photo-4430327.jpeg?auto=compress&cs=tinysrgb&h=350",
            "small":"https://images.pexels.com/photos/4430327/pexels-photo-4430327.jpeg?auto=compress&cs=tinysrgb&h=130",
            "portrait":"https://images.pexels.com/photos/4430327/pexels-photo-4430327.jpeg?auto=compress&cs=tinysrgb&fit=crop&h=1200&w=800",
            "landscape":"https://images.pexels.com/photos/4430327/pexels-photo-4430327.jpeg?auto=compress&cs=tinysrgb&fit=crop&h=627&w=1200",
            "tiny":"https://images.pexels.com/photos/4430327/pexels-photo-4430327.jpeg?auto=compress&cs=tinysrgb&dpr=1&fit=crop&h=200&w=280"},
            "liked":false},
        { "id":3493737,
        "width":4000,
        "height":6000,
        "url":"https://www.pexels.com/photo/monkey-on-fence-3493737/",
        "photographer":"Aleksey Kuprikov",
        "photographer_url":"https://www.pexels.com/@aleksey-kuprikov-1883853",
        "photographer_id":1883853,
        "avg_color":"#878A7D",
        "src": {
            "original":"https://images.pexels.com/photos/3493737/pexels-photo-3493737.jpeg",
            "large2x":"https://images.pexels.com/photos/3493737/pexels-photo-3493737.jpeg?auto=compress&cs=tinysrgb&dpr=2&h=650&w=940",
            "large":"https://images.pexels.com/photos/3493737/pexels-photo-3493737.jpeg?auto=compress&cs=tinysrgb&h=650&w=940",
            "medium":"https://images.pexels.com/photos/3493737/pexels-photo-3493737.jpeg?auto=compress&cs=tinysrgb&h=350",
            "small":"https://images.pexels.com/photos/3493737/pexels-photo-3493737.jpeg?auto=compress&cs=tinysrgb&h=130",
            "portrait":"https://images.pexels.com/photos/3493737/pexels-photo-3493737.jpeg?auto=compress&cs=tinysrgb&fit=crop&h=1200&w=800",
            "landscape":"https://images.pexels.com/photos/3493737/pexels-photo-3493737.jpeg?auto=compress&cs=tinysrgb&fit=crop&h=627&w=1200",
            "tiny":"https://images.pexels.com/photos/3493737/pexels-photo-3493737.jpeg?auto=compress&cs=tinysrgb&dpr=1&fit=crop&h=200&w=280"},
            "liked":false}],"total_results":1297,"next_page":"https://api.pexels.com/v1/search/?page=2&per_page=15&query=monkey"}